{
    "page": 1,
    "total_results": 10000,
    "total_pages": 500,
    "results":[
    {
      "popularity": 123.88,
      "vote_count": 123,
      "video": false,
      "poster_path": "/bKthjUmxjHjvJK8FktFfQdmwP12.jpg",
      "id": 703745,
      "adult": false,
      "backdrop_path": "/hIHtyIYgBqHybOgUdoAmveipuiO.jpg",
      "original_language": "en",
      "original_title": "Deep Blue Sea 3",
      "genre_ids": [
        28,
        27,
        878
      ],
      "title": "Deep Blue Sea 3",
      "vote_average": 6.7,
      "overview": "Dr. Emma Collins and her team are spending their third summer on the island of Little Happy studying the effect of climate change on the great white sharks who come to the nearby nursery every year to give birth. Along with the last two inhabitants of this former fishing village, their peaceful life is disrupted when a \"scientific\" team led by her ex-boyfriend and marine biologist Richard show up looking for three bull sharks who we soon learn aren't just any bull sharks.",
      "release_date": "2020-07-28"
    },
    {
      "popularity": 132.949,
      "vote_count": 41,
      "video": false,
      "poster_path": "/vFIHbiy55smzi50RmF8LQjmpGcx.jpg",
      "id": 703771,
      "adult": false,
      "backdrop_path": "/owraiceOKtSOa3t8sp3wA9K2Ox6.jpg",
      "original_language": "en",
      "original_title": "Deathstroke: Knights & Dragons - The Movie",
      "genre_ids": [
        28,
        16
      ],
      "title": "Deathstroke: Knights & Dragons - The Movie",
      "vote_average": 7.5,
      "overview": "Ten years ago, Slade Wilson-aka the super-assassin called Deathstroke-made a tragic mistake and his wife and son paid a terrible price. Now, a decade later, Wilson's family is threatened once again by the murderous Jackal and the terrorists of H.IV.E. Can Deathstroke atone for the sins of the past-or will his family pay the ultimate price?",
      "release_date": "2020-08-04"
    },
    {
      "popularity": 97.835,
      "vote_count": 814,
      "video": false,
      "poster_path": "/kjMbDciooTbJPofVXgAoFjfX8Of.jpg",
      "id": 516486,
      "adult": false,
      "backdrop_path": "/xXBnM6uSTk6qqCf0SRZKXcga9Ba.jpg",
      "original_language": "en",
      "original_title": "Greyhound",
      "genre_ids": [
        28,
        18,
        10752
      ],
      "title": "Greyhound",
      "vote_average": 7.5,
      "overview": "A first-time captain leads a convoy of allied ships carrying thousands of soldiers across the treacherous waters of the “Black Pit” to the front lines of WW2. With no air cover protection for 5 days, the captain and his convoy must battle the surrounding enemy Nazi U-boats in order to give the allies a chance to win the war.",
      "release_date": "2020-06-19"
    },
    {
      "popularity": 66.65,
      "vote_count": 20,
      "video": false,
      "poster_path": "/7B1gSxMdgZCCJcMRgo65T5lByMw.jpg",
      "id": 695596,
      "adult": false,
      "backdrop_path": "/zFjL6CurOHiWb4Am4nzVHul28KH.jpg",
      "original_language": "en",
      "original_title": "Malibu Rescue: The Next Wave",
      "genre_ids": [
        28,
        35
      ],
      "title": "Malibu Rescue: The Next Wave",
      "vote_average": 7.1,
      "overview": "It’s summer again, and everyone’s favorite Junior Rescuers, The Flounders, are back at Tower 2. With the International Junior Rescue Championships headed to Southern California, the eyes of the entire planet are on Malibu Beach. But when Team USA falls victim to a bout of food poisoning, it’s up to Tyler, Dylan, Eric, Lizzie and Gina to represent their country in the world's most extreme lifeguard challenge!",
      "release_date": "2020-08-04"
    },
    {
      "popularity": 78.741,
      "vote_count": 138,
      "video": false,
      "poster_path": "/ijJm0RSeKIr67qkHLtSmtigS6ra.jpg",
      "id": 430155,
      "adult": false,
      "backdrop_path": "/8HbqSozBJxv6UldR9lMUECUlbLI.jpg",
      "original_language": "ru",
      "original_title": "Кома",
      "genre_ids": [
        28,
        14,
        878
      ],
      "title": "Coma",
      "vote_average": 6.1,
      "overview": "A young and talented architect comes to his senses after a horrific accident only to find himself in the odd dystopian world. A world that is filled with the memories of all current coma patients. Just like a human memory this world is fragmental, chaotic and unstable. This is COMA: icecaps, rivers and cities can all exist in a space of a single room and laws of physics are no longer laws as they can be bent.",
      "release_date": "2019-11-19"
    },
    {
      "popularity": 77.62,
      "vote_count": 26712,
      "video": false,
      "poster_path": "/9gk7adHYeDvHkCSEqAvQNLV5Uge.jpg",
      "id": 27205,
      "adult": false,
      "backdrop_path": "/s3TBrRGB1iav7gFOCNx3H31MoES.jpg",
      "original_language": "en",
      "original_title": "Inception",
      "genre_ids": [
        28,
        12,
        878
      ],
      "title": "Inception",
      "vote_average": 8.3,
      "overview": "Cobb, a skilled thief who commits corporate espionage by infiltrating the subconscious of his targets is offered a chance to regain his old life as payment for a task considered to be impossible: \"inception\", the implantation of another person's idea into a target's subconscious.",
      "release_date": "2010-07-15"
    },
    {
      "popularity": 72.032,
      "vote_count": 255,
      "video": false,
      "poster_path": "/hPkqY2EMqWUnFEoedukilIUieVG.jpg",
      "id": 531876,
      "adult": false,
      "backdrop_path": "/n1RohH2VoK1CdVI2fXvcP19dSlm.jpg",
      "original_language": "en",
      "original_title": "The Outpost",
      "genre_ids": [
        28,
        18,
        36,
        10752
      ],
      "title": "The Outpost",
      "vote_average": 6.6,
      "overview": "A small unit of U.S. soldiers, alone at the remote Combat Outpost Keating, located deep in the valley of three mountains in Afghanistan, battles to defend against an overwhelming force of Taliban fighters in a coordinated attack. The Battle of Kamdesh, as it was known, was the bloodiest American engagement of the Afghan War in 2009 and Bravo Troop 3-61 CAV became one of the most decorated units of the 19-year conflict.",
      "release_date": "2020-06-24"
    },
    {
      "popularity": 59.265,
      "vote_count": 8032,
      "video": false,
      "poster_path": "/4q2NNj4S5dG2RLF9CpXsej7yXl.jpg",
      "id": 429617,
      "adult": false,
      "backdrop_path": "/5myQbDzw3l8K9yofUXRJ4UTVgam.jpg",
      "original_language": "en",
      "original_title": "Spider-Man: Far from Home",
      "genre_ids": [
        28,
        12,
        878
      ],
      "title": "Spider-Man: Far from Home",
      "vote_average": 7.5,
      "overview": "Peter Parker and his friends go on a summer trip to Europe. However, they will hardly be able to rest - Peter will have to agree to help Nick Fury uncover the mystery of creatures that cause natural disasters and destruction throughout the continent.",
      "release_date": "2019-06-28"
    },
    {
      "popularity": 69.464,
      "vote_count": 1566,
      "video": false,
      "poster_path": "/cjr4NWURcVN3gW5FlHeabgBHLrY.jpg",
      "id": 547016,
      "adult": false,
      "backdrop_path": "/m0ObOaJBerZ3Unc74l471ar8Iiy.jpg",
      "original_language": "en",
      "original_title": "The Old Guard",
      "genre_ids": [
        28,
        14
      ],
      "title": "The Old Guard",
      "vote_average": 7.4,
      "overview": "Four undying warriors who've secretly protected humanity for centuries become targeted for their mysterious powers just as they discover a new immortal.",
      "release_date": "2020-07-10"
    },
    {
      "popularity": 68.814,
      "vote_count": 5394,
      "video": false,
      "poster_path": "/db32LaOibwEliAmSL2jjDF6oDdj.jpg",
      "id": 181812,
      "adult": false,
      "backdrop_path": "/SPkEiZGxq5aHWQ2Zw7AITwSEo2.jpg",
      "original_language": "en",
      "original_title": "Star Wars: The Rise of Skywalker",
      "genre_ids": [
        28,
        12,
        878
      ],
      "title": "Star Wars: The Rise of Skywalker",
      "vote_average": 6.6,
      "overview": "The surviving Resistance faces the First Order once again as the journey of Rey, Finn and Poe Dameron continues. With the power and knowledge of generations behind them, the final battle begins.",
      "release_date": "2019-12-18"
    },
    {
      "popularity": 71.314,
      "vote_count": 5351,
      "video": false,
      "poster_path": "/h4VB6m0RwcicVEZvzftYZyKXs6K.jpg",
      "id": 495764,
      "adult": false,
      "backdrop_path": "/9xNOiv6DZZjH7ABoUUDP0ZynouU.jpg",
      "original_language": "en",
      "original_title": "Birds of Prey (and the Fantabulous Emancipation of One Harley Quinn)",
      "genre_ids": [
        28,
        35,
        80
      ],
      "title": "Birds of Prey (and the Fantabulous Emancipation of One Harley Quinn)",
      "vote_average": 7.2,
      "overview": "Harley Quinn joins forces with a singer, an assassin and a police detective to help a young girl who had a hit placed on her after she stole a rare diamond from a crime lord.",
      "release_date": "2020-02-05"
    },
    {
      "popularity": 63.043,
      "vote_count": 42,
      "video": false,
      "poster_path": "/bhNHCeJDFDaB00A46AoCw2mggdE.jpg",
      "id": 601165,
      "adult": false,
      "backdrop_path": "/nxxODhq9I05Ze9uLONGvfDrzaUO.jpg",
      "original_language": "en",
      "original_title": "Legacy of Lies",
      "genre_ids": [
        28,
        53
      ],
      "title": "Legacy of Lies",
      "vote_average": 5.9,
      "overview": "An ex-MI6 agent is thrown back into the world of espionage and high stakes to uncover the shocking truth about operations conducted by unknown secret services.",
      "release_date": "2020-08-06"
    },
    {
      "popularity": 63.759,
      "vote_count": 19210,
      "video": false,
      "poster_path": "/7WsyChQLEftFiDOVTGkv3hFpyyt.jpg",
      "id": 299536,
      "adult": false,
      "backdrop_path": "/bOGkgRGdhrBYJSLpXaxhXVstddV.jpg",
      "original_language": "en",
      "original_title": "Avengers: Infinity War",
      "genre_ids": [
        28,
        12,
        878
      ],
      "title": "Avengers: Infinity War",
      "vote_average": 8.3,
      "overview": "As the Avengers and their allies have continued to protect the world from threats too large for any one hero to handle, a new danger has emerged from the cosmic shadows: Thanos. A despot of intergalactic infamy, his goal is to collect all six Infinity Stones, artifacts of unimaginable power, and use them to inflict his twisted will on all of reality. Everything the Avengers have fought for has led up to this moment - the fate of Earth and existence itself has never been more uncertain.",
      "release_date": "2018-04-25"
    },
    {
      "popularity": 61.467,
      "vote_count": 2854,
      "video": false,
      "poster_path": "/wlfDxbGEsW58vGhFljKkcR5IxDj.jpg",
      "id": 545609,
      "adult": false,
      "backdrop_path": "/1R6cvRtZgsYCkh8UFuWFN33xBP4.jpg",
      "original_language": "en",
      "original_title": "Extraction",
      "genre_ids": [
        28,
        18,
        53
      ],
      "title": "Extraction",
      "vote_average": 7.5,
      "overview": "Tyler Rake, a fearless mercenary who offers his services on the black market, embarks on a dangerous mission when he is hired to rescue the kidnapped son of a Mumbai crime lord…",
      "release_date": "2020-04-24"
    },
    {
      "popularity": 58.878,
      "vote_count": 4863,
      "video": false,
      "poster_path": "/y95lQLnuNKdPAzw9F9Ab8kJ80c3.jpg",
      "id": 38700,
      "adult": false,
      "backdrop_path": "/upUy2QhMZEmtypPW3PdieKLAHxh.jpg",
      "original_language": "en",
      "original_title": "Bad Boys for Life",
      "genre_ids": [
        28,
        80,
        53
      ],
      "title": "Bad Boys for Life",
      "vote_average": 7.2,
      "overview": "Marcus and Mike are forced to confront new threats, career changes, and midlife crises as they join the newly created elite team AMMO of the Miami police department to take down the ruthless Armando Armas, the vicious leader of a Miami drug cartel.",
      "release_date": "2020-01-15"
    },
    {
      "popularity": 51.76,
      "vote_count": 5325,
      "video": false,
      "poster_path": "/aQvJ5WPzZgYVDrxLX4R6cLJCEaQ.jpg",
      "id": 454626,
      "adult": false,
      "backdrop_path": "/stmYfCUGd8Iy6kAMBr6AmWqx8Bq.jpg",
      "original_language": "en",
      "original_title": "Sonic the Hedgehog",
      "genre_ids": [
        28,
        35,
        878,
        10751
      ],
      "title": "Sonic the Hedgehog",
      "vote_average": 7.5,
      "overview": "Based on the global blockbuster videogame franchise from Sega, Sonic the Hedgehog tells the story of the world’s speediest hedgehog as he embraces his new home on Earth. In this live-action adventure comedy, Sonic and his new best friend team up to defend the planet from the evil genius Dr. Robotnik and his plans for world domination.",
      "release_date": "2020-02-12"
    },
    {
      "popularity": 49.361,
      "vote_count": 14082,
      "video": false,
      "poster_path": "/6FfCtAuVAW8XJjZ7eWeLibRLWTw.jpg",
      "id": 11,
      "adult": false,
      "backdrop_path": "/zqkmTXzjkAgXmEWLRsY4UpTWCeo.jpg",
      "original_language": "en",
      "original_title": "Star Wars",
      "genre_ids": [
        28,
        12,
        878
      ],
      "title": "Star Wars",
      "vote_average": 8.2,
      "overview": "Princess Leia is captured and held hostage by the evil Imperial forces in their effort to take over the galactic Empire. Venturesome Luke Skywalker and dashing captain Han Solo team together with the loveable robot duo R2-D2 and C-3PO to rescue the beautiful princess and restore peace and justice in the Empire.",
      "release_date": "1977-05-25"
    },
    {
      "popularity": 43.71,
      "vote_count": 23,
      "video": false,
      "poster_path": "/aVbqhqYtlxwEGihTEhewZAgDOCX.jpg",
      "id": 489326,
      "adult": false,
      "backdrop_path": "/dFB6Tiy3z2xRLbnEUB5ocApT5xG.jpg",
      "original_language": "en",
      "original_title": "Mortal",
      "genre_ids": [
        28,
        12,
        14
      ],
      "title": "Mortal",
      "vote_average": 5.3,
      "overview": "Fantasy adventure origin story about a young man discovering he has God-like powers based on ancient Norwegian mythology.",
      "release_date": "2020-02-28"
    },
    {
      "popularity": 41.585,
      "vote_count": 7747,
      "video": false,
      "poster_path": "/iiZZdoQBEYBv6id8su7ImL0oCbD.jpg",
      "id": 324857,
      "adult": false,
      "backdrop_path": "/aUVCJ0HkcJIBrTJYPnTXta8h9Co.jpg",
      "original_language": "en",
      "original_title": "Spider-Man: Into the Spider-Verse",
      "genre_ids": [
        28,
        12,
        16,
        35,
        878
      ],
      "title": "Spider-Man: Into the Spider-Verse",
      "vote_average": 8.4,
      "overview": "Miles Morales is juggling his life between being a high school student and being a spider-man. When Wilson \"Kingpin\" Fisk uses a super collider, others from across the Spider-Verse are transported to this dimension.",
      "release_date": "2018-12-06"
    },
    {
      "popularity": 50.646,
      "vote_count": 2975,
      "video": false,
      "poster_path": "/8WUVHemHFH2ZIP6NWkwlHWsyrEL.jpg",
      "id": 338762,
      "adult": false,
      "backdrop_path": "/lP5eKh8WOcPysfELrUpGhHJGZEH.jpg",
      "original_language": "en",
      "original_title": "Bloodshot",
      "genre_ids": [
        28,
        878
      ],
      "title": "Bloodshot",
      "vote_average": 7,
      "overview": "After he and his wife are murdered, marine Ray Garrison is resurrected by a team of scientists. Enhanced with nanotechnology, he becomes a superhuman, biotech killing machine—'Bloodshot'. As Ray first trains with fellow super-soldiers, he cannot recall anything from his former life. But when his memories flood back and he remembers the man that killed both him and his wife, he breaks out of the facility to get revenge, only to discover that there's more to the conspiracy than he thought.",
      "release_date": "2020-03-05"
    }
  ]
}