
    {
      "page": 1,
      "total_results": 10000,
      "total_pages": 500,
      "results":[
        {
      "popularity": 149.921,
      "vote_count": 2893,
      "video": false,
      "poster_path": "/mb7wQv0adK3kjOUr9n93mANHhPJ.jpg",
      "id": 583083,
      "adult": false,
      "backdrop_path": "/wO5QSWZPBT71gMLvrRex0bVc0V9.jpg",
      "original_language": "en",
      "original_title": "The Kissing Booth 2",
      "genre_ids": [
        35,
        10749
      ],
      "title": "The Kissing Booth 2",
      "vote_average": 8.2,
      "overview": "With college decisions looming, Elle juggles her long-distance romance with Noah, changing relationship with bestie Lee and feelings for a new classmate.",
      "release_date": "2020-07-24"
    },
    {
      "popularity": 112.794,
      "vote_count": 21,
      "video": false,
      "poster_path": "/8ziUp2q71vCmMgYY2MRCwI3mSs5.jpg",
      "id": 628917,
      "adult": false,
      "backdrop_path": "/3H1yUIL1KxIuIMRwNMSL9cvifby.jpg",
      "original_language": "en",
      "original_title": "An American Pickle",
      "genre_ids": [
        35
      ],
      "title": "An American Pickle",
      "vote_average": 6,
      "overview": "An immigrant worker at a pickle factory is accidentally preserved for 100 years and wakes up in modern day Brooklyn. He learns his only surviving relative is his great grandson, a computer coder who he can’t connect with.",
      "release_date": "2020-08-06"
    },
    {
      "popularity": 104.805,
      "vote_count": 354,
      "video": false,
      "poster_path": "/jHo2M1OiH9Re33jYtUQdfzPeUkx.jpg",
      "id": 385103,
      "adult": false,
      "backdrop_path": "/fKtYXUhX5fxMxzQfyUcQW9Shik6.jpg",
      "original_language": "en",
      "original_title": "Scoob!",
      "genre_ids": [
        12,
        16,
        35,
        10751
      ],
      "title": "Scoob!",
      "vote_average": 7.6,
      "overview": "In Scooby-Doo’s greatest adventure yet, see the never-before told story of how lifelong friends Scooby and Shaggy first met and how they joined forces with young detectives Fred, Velma, and Daphne to form the famous Mystery Inc. Now, with hundreds of cases solved, Scooby and the gang face their biggest, toughest mystery ever: an evil plot to unleash the ghost dog Cerberus upon the world. As they race to stop this global “dogpocalypse,” the gang discovers that Scooby has a secret legacy and an epic destiny greater than anyone ever imagined.",
      "release_date": "2020-07-08"
    },
    {
      "popularity": 66.65,
      "vote_count": 20,
      "video": false,
      "poster_path": "/7B1gSxMdgZCCJcMRgo65T5lByMw.jpg",
      "id": 695596,
      "adult": false,
      "backdrop_path": "/zFjL6CurOHiWb4Am4nzVHul28KH.jpg",
      "original_language": "en",
      "original_title": "Malibu Rescue: The Next Wave",
      "genre_ids": [
        28,
        35
      ],
      "title": "Malibu Rescue: The Next Wave",
      "vote_average": 7.1,
      "overview": "It’s summer again, and everyone’s favorite Junior Rescuers, The Flounders, are back at Tower 2. With the International Junior Rescue Championships headed to Southern California, the eyes of the entire planet are on Malibu Beach. But when Team USA falls victim to a bout of food poisoning, it’s up to Tyler, Dylan, Eric, Lizzie and Gina to represent their country in the world's most extreme lifeguard challenge!",
      "release_date": "2020-08-04"
    },
    {
      "popularity": 108.112,
      "vote_count": 86,
      "video": false,
      "poster_path": "/b5XfICAvUe8beWExBz97i0Qw4Qh.jpg",
      "id": 612706,
      "adult": false,
      "backdrop_path": "/ishzDCZIv9iWfI70nv5E4ZreYUD.jpg",
      "original_language": "en",
      "original_title": "Work It",
      "genre_ids": [
        35,
        10402
      ],
      "title": "Work It",
      "vote_average": 7.7,
      "overview": "A brilliant but clumsy high school senior vows to get into her late father's alma mater by transforming herself and a misfit squad into dance champions.",
      "release_date": "2020-08-07"
    },
    {
      "popularity": 71.314,
      "vote_count": 5351,
      "video": false,
      "poster_path": "/h4VB6m0RwcicVEZvzftYZyKXs6K.jpg",
      "id": 495764,
      "adult": false,
      "backdrop_path": "/9xNOiv6DZZjH7ABoUUDP0ZynouU.jpg",
      "original_language": "en",
      "original_title": "Birds of Prey (and the Fantabulous Emancipation of One Harley Quinn)",
      "genre_ids": [
        28,
        35,
        80
      ],
      "title": "Birds of Prey (and the Fantabulous Emancipation of One Harley Quinn)",
      "vote_average": 7.2,
      "overview": "Harley Quinn joins forces with a singer, an assassin and a police detective to help a young girl who had a hit placed on her after she stole a rare diamond from a crime lord.",
      "release_date": "2020-02-05"
    },
    {
      "popularity": 49.838,
      "vote_count": 5205,
      "video": false,
      "poster_path": "/7Dktk2ST6aL8h9Oe5rpk903VLhx.jpg",
      "id": 454983,
      "adult": false,
      "backdrop_path": "/itiz2OBK4ns6XT0ufXtusojmMt9.jpg",
      "original_language": "en",
      "original_title": "The Kissing Booth",
      "genre_ids": [
        35,
        10749
      ],
      "title": "The Kissing Booth",
      "vote_average": 7.3,
      "overview": "When teenager Elle's first kiss leads to a forbidden romance with the hottest boy in high school, she risks her relationship with her best friend.",
      "release_date": "2018-05-11"
    },
    {
      "popularity": 61.001,
      "id": 664301,
      "video": false,
      "vote_count": 2,
      "vote_average": 8,
      "title": "I Used to Go Here",
      "release_date": "2020-08-07",
      "original_language": "en",
      "original_title": "I Used to Go Here",
      "genre_ids": [
        18,
        35,
        10749
      ],
      "backdrop_path": "/lGstQ5fD73Hs4IzW3IRJX0yRvRI.jpg",
      "adult": false,
      "overview": "Following the launch of her new novel, 35-year-old writer Kate Conklin is invited to speak at her alma mater by her mentor and former professor. After accepting the invitation, Kate finds herself deeply enmeshed in the lives of an eccentric group of college students.",
      "poster_path": "/7cN1YBcuBKrxdtxUDig29cXKfKR.jpg"
    },
    {
      "popularity": 52.42,
      "vote_count": 4977,
      "video": false,
      "poster_path": "/czVhhAaSBFpakur7U8pOIDV9NUG.jpg",
      "id": 621,
      "adult": false,
      "backdrop_path": "/koSWhCzMJfJOramu4KD0ZZifqpi.jpg",
      "original_language": "en",
      "original_title": "Grease",
      "genre_ids": [
        35,
        10749
      ],
      "title": "Grease",
      "vote_average": 7.4,
      "overview": "Australian good girl Sandy and greaser Danny fell in love over the summer. But when they unexpectedly discover they're now in the same high school, will they be able to rekindle their romance despite their eccentric friends?",
      "release_date": "1978-07-07"
    },
    {
      "popularity": 70.429,
      "vote_count": 8690,
      "video": false,
      "poster_path": "/7IiTTgloJzvGI1TAYymCfbfl3vT.jpg",
      "id": 496243,
      "adult": false,
      "backdrop_path": "/ApiBzeaa95TNYliSbQ8pJv4Fje7.jpg",
      "original_language": "ko",
      "original_title": "기생충",
      "genre_ids": [
        35,
        18,
        53
      ],
      "title": "Parasite",
      "vote_average": 8.5,
      "overview": "All unemployed, Ki-taek's family takes peculiar interest in the wealthy and glamorous Parks for their livelihood until they get entangled in an unexpected incident.",
      "release_date": "2019-05-30"
    },
    {
      "popularity": 51.76,
      "vote_count": 5325,
      "video": false,
      "poster_path": "/aQvJ5WPzZgYVDrxLX4R6cLJCEaQ.jpg",
      "id": 454626,
      "adult": false,
      "backdrop_path": "/stmYfCUGd8Iy6kAMBr6AmWqx8Bq.jpg",
      "original_language": "en",
      "original_title": "Sonic the Hedgehog",
      "genre_ids": [
        28,
        35,
        878,
        10751
      ],
      "title": "Sonic the Hedgehog",
      "vote_average": 7.5,
      "overview": "Based on the global blockbuster videogame franchise from Sega, Sonic the Hedgehog tells the story of the world’s speediest hedgehog as he embraces his new home on Earth. In this live-action adventure comedy, Sonic and his new best friend team up to defend the planet from the evil genius Dr. Robotnik and his plans for world domination.",
      "release_date": "2020-02-12"
    },
    {
      "popularity": 29.518,
      "vote_count": 4570,
      "video": false,
      "poster_path": "/zdUA4FNHbXPadzVOJiU0Rgn6cHR.jpg",
      "id": 11631,
      "adult": false,
      "backdrop_path": "/ns9T8glyF7mYwxrcUHXm22nMf9t.jpg",
      "original_language": "en",
      "original_title": "Mamma Mia!",
      "genre_ids": [
        35,
        10749
      ],
      "title": "Mamma Mia!",
      "vote_average": 6.9,
      "overview": "An independent, single mother who owns a small hotel on a Greek island is about to marry off the spirited young daughter she's raised alone. But, the daughter has secretly invited three of her mother's ex-lovers in the hopes of finding her biological father.",
      "release_date": "2008-07-02"
    },
    {
      "popularity": 41.585,
      "vote_count": 7747,
      "video": false,
      "poster_path": "/iiZZdoQBEYBv6id8su7ImL0oCbD.jpg",
      "id": 324857,
      "adult": false,
      "backdrop_path": "/aUVCJ0HkcJIBrTJYPnTXta8h9Co.jpg",
      "original_language": "en",
      "original_title": "Spider-Man: Into the Spider-Verse",
      "genre_ids": [
        28,
        12,
        16,
        35,
        878
      ],
      "title": "Spider-Man: Into the Spider-Verse",
      "vote_average": 8.4,
      "overview": "Miles Morales is juggling his life between being a high school student and being a spider-man. When Wilson \"Kingpin\" Fisk uses a super collider, others from across the Spider-Verse are transported to this dimension.",
      "release_date": "2018-12-06"
    },
    {
      "popularity": 66.538,
      "vote_count": 2,
      "video": false,
      "poster_path": "/dKjD3DTZjRI3Ipkf7Oz5zAILnwD.jpg",
      "id": 659991,
      "adult": false,
      "backdrop_path": "/5nRyaVklxyA9OkxqZaPv1KBRqpd.jpg",
      "original_language": "en",
      "original_title": "Made in Italy",
      "genre_ids": [
        35,
        18
      ],
      "title": "Made in Italy",
      "vote_average": 8.5,
      "overview": "A bohemian artist travels from London to Italy with his estranged son to sell the house they inherited from his late wife.",
      "release_date": "2020-08-06"
    },
    {
      "popularity": 46.372,
      "id": 198277,
      "video": false,
      "vote_count": 2617,
      "vote_average": 7.2,
      "title": "Begin Again",
      "release_date": "2013-09-07",
      "original_language": "en",
      "original_title": "Begin Again",
      "genre_ids": [
        35,
        10402,
        10749,
        18
      ],
      "backdrop_path": "/xrSRmL6pXnRfu9vKwayILkNgLP.jpg",
      "adult": false,
      "overview": "Gretta, a budding songwriter, finds herself alone after her boyfriend Dave ditches her. Her life gains purpose when Dan, a record label executive, notices her talent.",
      "poster_path": "/qx4HXHXt528hS4rwePZbZo20xqZ.jpg"
    },
    {
      "popularity": 33.894,
      "vote_count": 12,
      "video": false,
      "poster_path": "/cDbOrc2RtIA37nLm0CzVpFLrdaG.jpg",
      "id": 513584,
      "adult": false,
      "backdrop_path": "/qEo36RiT8w4hMFlf9KohOSuX3HZ.jpg",
      "original_language": "en",
      "original_title": "Think Like a Dog",
      "genre_ids": [
        35,
        18,
        10751
      ],
      "title": "Think Like a Dog",
      "vote_average": 7.2,
      "overview": "A 12-year-old tech prodigy whose science experiment goes awry and he forges a telepathic connection with his best friend, his dog. The duo join forces and use their unique perspectives on life to comically overcome complications of family and school.",
      "release_date": "2020-08-06"
    },
    {
      "popularity": 52.212,
      "vote_count": 2803,
      "video": false,
      "poster_path": "/f4aul3FyD3jv3v4bul1IrkWZvzq.jpg",
      "id": 508439,
      "adult": false,
      "backdrop_path": "/xFxk4vnirOtUxpOEWgA1MCRfy6J.jpg",
      "original_language": "en",
      "original_title": "Onward",
      "genre_ids": [
        12,
        16,
        35,
        14,
        10751
      ],
      "title": "Onward",
      "vote_average": 7.9,
      "overview": "In a suburban fantasy world, two teenage elf brothers embark on an extraordinary quest to discover if there is still a little magic left out there.",
      "release_date": "2020-02-29"
    },
    {
      "popularity": 44.425,
      "vote_count": 11958,
      "video": false,
      "poster_path": "/2mxS4wUimwlLmI1xp6QW6NSU361.jpg",
      "id": 177572,
      "adult": false,
      "backdrop_path": "/4s2d3xdyqotiVNHTlTlJjrr3q0H.jpg",
      "original_language": "en",
      "original_title": "Big Hero 6",
      "genre_ids": [
        28,
        12,
        16,
        35,
        10751
      ],
      "title": "Big Hero 6",
      "vote_average": 7.8,
      "overview": "The special bond that develops between plus-sized inflatable robot Baymax, and prodigy Hiro Hamada, who team up with a group of friends to form a band of high-tech heroes.",
      "release_date": "2014-10-24"
    },
    {
      "popularity": 44.241,
      "vote_count": 13615,
      "video": false,
      "poster_path": "/7lyBcpYB0Qt8gYhXYaEZUNlNQAv.jpg",
      "id": 105,
      "adult": false,
      "backdrop_path": "/fq3wyOs1RHyz2yfzsb4sck7aWRG.jpg",
      "original_language": "en",
      "original_title": "Back to the Future",
      "genre_ids": [
        12,
        35,
        878,
        10751
      ],
      "title": "Back to the Future",
      "vote_average": 8.3,
      "overview": "Eighties teenager Marty McFly is accidentally sent back in time to 1955, inadvertently disrupting his parents' first meeting and attracting his mother's romantic interest. Marty must repair the damage to history by rekindling his parents' romance and - with the help of his eccentric inventor friend Doc Brown - return to 1985.",
      "release_date": "1985-07-03"
    },
    {
      "popularity": 40.446,
      "id": 150540,
      "video": false,
      "vote_count": 15267,
      "vote_average": 7.9,
      "title": "Inside Out",
      "release_date": "2015-06-09",
      "original_language": "en",
      "original_title": "Inside Out",
      "genre_ids": [
        18,
        35,
        16,
        10751
      ],
      "backdrop_path": "/okJXzeIpbdx7q8rQjJwBNr8VTEk.jpg",
      "adult": false,
      "overview": "Growing up can be a bumpy road, and it's no exception for Riley, who is uprooted from her Midwest life when her father starts a new job in San Francisco. Riley's guiding emotions— Joy, Fear, Anger, Disgust and Sadness—live in Headquarters, the control centre inside Riley's mind, where they help advise her through everyday life and tries to keep things positive, but the emotions conflict on how best to navigate a new city, house and school.",
      "poster_path": "/lRHE0vzf3oYJrhbsHXjIkF4Tl5A.jpg"
    }
]
}