{
  "page": 1,
  "total_results": 10000,
  "total_pages": 500,
  "results":[
    {
      "popularity": 149.921,
      "vote_count": 2893,
      "video": false,
      "poster_path": "/mb7wQv0adK3kjOUr9n93mANHhPJ.jpg",
      "id": 583083,
      "adult": false,
      "backdrop_path": "/wO5QSWZPBT71gMLvrRex0bVc0V9.jpg",
      "original_language": "en",
      "original_title": "The Kissing Booth 2",
      "genre_ids": [
        35,
        10749
      ],
      "title": "The Kissing Booth 2",
      "vote_average": 8.2,
      "overview": "With college decisions looming, Elle juggles her long-distance romance with Noah, changing relationship with bestie Lee and feelings for a new classmate.",
      "release_date": "2020-07-24"
    },
    {
      "popularity": 44.96,
      "vote_count": 551,
      "video": false,
      "poster_path": "/3D0wcKWT5Unx3XbBiht5gcPWTxP.jpg",
      "id": 724089,
      "adult": false,
      "backdrop_path": "/jtAI6OJIWLWiRItNSZoWjrsUtmi.jpg",
      "original_language": "en",
      "original_title": "Gabriel's Inferno Part II",
      "genre_ids": [
        10749
      ],
      "title": "Gabriel's Inferno Part II",
      "vote_average": 9.2,
      "overview": "Professor Gabriel Emerson finally learns the truth about Julia Mitchell's identity, but his realization comes a moment too late. Julia is done waiting for the well-respected Dante specialist to remember her and wants nothing more to do with him. Can Gabriel win back her heart before she finds love in another's arms?",
      "release_date": "2020-07-31"
    },
    {
      "popularity": 49.838,
      "vote_count": 5205,
      "video": false,
      "poster_path": "/7Dktk2ST6aL8h9Oe5rpk903VLhx.jpg",
      "id": 454983,
      "adult": false,
      "backdrop_path": "/itiz2OBK4ns6XT0ufXtusojmMt9.jpg",
      "original_language": "en",
      "original_title": "The Kissing Booth",
      "genre_ids": [
        35,
        10749
      ],
      "title": "The Kissing Booth",
      "vote_average": 7.3,
      "overview": "When teenager Elle's first kiss leads to a forbidden romance with the hottest boy in high school, she risks her relationship with her best friend.",
      "release_date": "2018-05-11"
    },
    {
      "popularity": 61.001,
      "id": 664301,
      "video": false,
      "vote_count": 2,
      "vote_average": 8,
      "title": "I Used to Go Here",
      "release_date": "2020-08-07",
      "original_language": "en",
      "original_title": "I Used to Go Here",
      "genre_ids": [
        18,
        35,
        10749
      ],
      "backdrop_path": "/lGstQ5fD73Hs4IzW3IRJX0yRvRI.jpg",
      "adult": false,
      "overview": "Following the launch of her new novel, 35-year-old writer Kate Conklin is invited to speak at her alma mater by her mentor and former professor. After accepting the invitation, Kate finds herself deeply enmeshed in the lives of an eccentric group of college students.",
      "poster_path": "/7cN1YBcuBKrxdtxUDig29cXKfKR.jpg"
    },
    {
      "popularity": 52.42,
      "vote_count": 4977,
      "video": false,
      "poster_path": "/czVhhAaSBFpakur7U8pOIDV9NUG.jpg",
      "id": 621,
      "adult": false,
      "backdrop_path": "/koSWhCzMJfJOramu4KD0ZZifqpi.jpg",
      "original_language": "en",
      "original_title": "Grease",
      "genre_ids": [
        35,
        10749
      ],
      "title": "Grease",
      "vote_average": 7.4,
      "overview": "Australian good girl Sandy and greaser Danny fell in love over the summer. But when they unexpectedly discover they're now in the same high school, will they be able to rekindle their romance despite their eccentric friends?",
      "release_date": "1978-07-07"
    },
    {
      "popularity": 36.461,
      "vote_count": 0,
      "video": false,
      "poster_path": "/pBe7UPnqfEsMesPqx4j3pHmfYJr.jpg",
      "id": 690211,
      "adult": false,
      "backdrop_path": "/aOoXuMSFEnbjHIS74nqjFzIm3f3.jpg",
      "original_language": "en",
      "original_title": "Love on Harbor Island",
      "genre_ids": [
        10749,
        10770
      ],
      "title": "Love on Harbor Island",
      "vote_average": 0,
      "overview": "Interior designer Lily returns home to help her Aunt Maggie run her marina-side bed and breakfast when she meets Marcus, a handsome seaplane pilot whose work delivering rescue dogs helps Lily discover that home really is where the heart is",
      "release_date": "2020-08-08"
    },
    {
      "popularity": 46.372,
      "id": 198277,
      "video": false,
      "vote_count": 2617,
      "vote_average": 7.2,
      "title": "Begin Again",
      "release_date": "2013-09-07",
      "original_language": "en",
      "original_title": "Begin Again",
      "genre_ids": [
        35,
        10402,
        10749,
        18
      ],
      "backdrop_path": "/xrSRmL6pXnRfu9vKwayILkNgLP.jpg",
      "adult": false,
      "overview": "Gretta, a budding songwriter, finds herself alone after her boyfriend Dave ditches her. Her life gains purpose when Dan, a record label executive, notices her talent.",
      "poster_path": "/qx4HXHXt528hS4rwePZbZo20xqZ.jpg"
    },
    {
      "popularity": 63.395,
      "id": 414887,
      "video": false,
      "vote_count": 1,
      "vote_average": 6,
      "title": "Madam",
      "release_date": "2015-08-14",
      "original_language": "ko",
      "original_title": "마님",
      "genre_ids": [
        10749
      ],
      "backdrop_path": null,
      "adult": false,
      "overview": "Ma-nim (Kim Jeong-ah-II) becomes a widow after her husband dies from sickness and she arrives at Bukgando to get remarried. Her new husband is a handsome and wealthy man but he is killed by a Japanese even before she spends a night with him. Ma-nim is alone in the big house once again. Everyone by her husband's side leaves and only the grandfather and slave named Bau are left behind. One day, Ma-nim notices that Bau has a way of staring at her and she is overcome by a strange feeling. She'd to oppress her desires as a woman because of her two short marriages and strict identity. Bau had never made love with a woman before but she didn't mind his gaze on her. The two of them start a forbidden love behind grandfather's back...",
      "poster_path": "/3maWeldWS9dnUYbgCPXAghjEtDk.jpg"
    },
    {
      "popularity": 43.065,
      "vote_count": 344,
      "video": false,
      "poster_path": "/MBiKqTsouYqAACLYNDadsjhhC0.jpg",
      "id": 486589,
      "adult": false,
      "backdrop_path": "/bga3i5jcejBekr2FCGJga1fYCh.jpg",
      "original_language": "en",
      "original_title": "Red Shoes and the Seven Dwarfs",
      "genre_ids": [
        16,
        10749,
        10751
      ],
      "title": "Red Shoes and the Seven Dwarfs",
      "vote_average": 7.3,
      "overview": "Princes who have been turned into Dwarfs seek the red shoes of a lady in order to break the spell, although it will not be easy.",
      "release_date": "2019-07-25"
    },
    {
      "popularity": 39.479,
      "id": 9762,
      "video": false,
      "vote_count": 2774,
      "vote_average": 6.9,
      "title": "Step Up",
      "release_date": "2006-08-11",
      "original_language": "en",
      "original_title": "Step Up",
      "genre_ids": [
        10402,
        18,
        10749,
        80
      ],
      "backdrop_path": "/wZ4WOYdFwxd9hcVYDvpI99eKQZ.jpg",
      "adult": false,
      "overview": "Everyone deserves a chance to follow their dreams, but some people only get one shot. Tyler Gage is a rebel from the wrong side of Baltimore's tracks and the only thing that stands between him and an unfulfilled life are his dreams of one day making it out of there. Nora is a privileged ballet dancer attending Baltimore's ultra-elite Maryland School of the Arts",
      "poster_path": "/5Z9XHRf2i1V5FbgKZNraEKO7zcB.jpg"
    },
    {
      "popularity": 38.394,
      "vote_count": 4359,
      "video": false,
      "poster_path": "/u3B2YKUjWABcxXZ6Nm9h10hLUbh.jpg",
      "id": 537915,
      "adult": false,
      "backdrop_path": "/997ToEZvF2Obp9zNZbY5ELVnmrW.jpg",
      "original_language": "en",
      "original_title": "After",
      "genre_ids": [
        18,
        10749
      ],
      "title": "After",
      "vote_average": 6.9,
      "overview": "Tessa Young is a dedicated student, dutiful daughter and loyal girlfriend to her high school sweetheart. Entering her first semester of college, Tessa's guarded world opens up when she meets Hardin Scott, a mysterious and brooding rebel who makes her question all she thought she knew about herself -- and what she wants out of life.",
      "release_date": "2019-04-11"
    },
    {
      "popularity": 37.057,
      "vote_count": 18583,
      "video": false,
      "poster_path": "/clolk7rB5lAjs41SD0Vt6IXYLMm.jpg",
      "id": 13,
      "adult": false,
      "backdrop_path": "/7c9UVPPiTPltouxRVY6N9uugaVA.jpg",
      "original_language": "en",
      "original_title": "Forrest Gump",
      "genre_ids": [
        35,
        18,
        10749
      ],
      "title": "Forrest Gump",
      "vote_average": 8.5,
      "overview": "A man with a low IQ has accomplished great things in his life and been present during significant historic events—in each case, far exceeding what anyone imagined he could do. But despite all he has achieved, his one true love eludes him.",
      "release_date": "1994-07-06"
    },
    {
      "popularity": 36.68,
      "vote_count": 105,
      "video": false,
      "poster_path": "/akHIQu8W3rOgT28r25ggXaKcQIr.jpg",
      "id": 480857,
      "adult": false,
      "backdrop_path": "/e7tjpKP36Xd6BzyTMZo4AUe86VM.jpg",
      "original_language": "en",
      "original_title": "Radioactive",
      "genre_ids": [
        18,
        36,
        10749
      ],
      "title": "Radioactive",
      "vote_average": 6,
      "overview": "Tells the story of Nobel Prize winner Marie Curie and her extraordinary scientific discoveries — through the prism of her marriage to husband Pierre — and the seismic and transformative effects their discovery of radium had on the 20th century.",
      "release_date": "2020-03-11"
    },
    {
      "popularity": 43.047,
      "vote_count": 0,
      "video": false,
      "poster_path": "/yf5IuMW6GHghu39kxA0oFx7Bxmj.jpg",
      "id": 587792,
      "adult": false,
      "backdrop_path": "/d7JUXVvjvVCXWs1mlpyO5ESdWdT.jpg",
      "original_language": "en",
      "original_title": "Palm Springs",
      "genre_ids": [
        35,
        14,
        9648,
        10749
      ],
      "title": "Palm Springs",
      "vote_average": 0,
      "overview": "When carefree Nyles and reluctant maid of honor Sarah have a chance encounter at a Palm Springs wedding, things get complicated when they find themselves unable to escape the venue, themselves, or each other.",
      "release_date": "2020-08-20"
    },
    {
      "popularity": 34.884,
      "vote_count": 17473,
      "video": false,
      "poster_path": "/9xjZS2rlVxm8SFx8kPC3aIGCOYQ.jpg",
      "id": 597,
      "adult": false,
      "backdrop_path": "/6VmFqApQRyZZzmiGOQq2C92jyvH.jpg",
      "original_language": "en",
      "original_title": "Titanic",
      "genre_ids": [
        18,
        10749
      ],
      "title": "Titanic",
      "vote_average": 7.9,
      "overview": "101-year-old Rose DeWitt Bukater tells the story of her life aboard the Titanic, 84 years later. A young Rose boards the ship with her mother and fiancé. Meanwhile, Jack Dawson and Fabrizio De Rossi win third-class tickets aboard the ship. Rose tells the whole story from Titanic's departure through to its death—on its first and last voyage—on April 15, 1912.",
      "release_date": "1997-11-18"
    },
    {
      "popularity": 34.834,
      "vote_count": 10161,
      "video": false,
      "poster_path": "/ik8PugpL41s137RAWEGTAWu0dPo.jpg",
      "id": 102651,
      "adult": false,
      "backdrop_path": "/xjotE7aFdZ0D8aGriYjFOtDayct.jpg",
      "original_language": "en",
      "original_title": "Maleficent",
      "genre_ids": [
        28,
        12,
        14,
        10749,
        10751
      ],
      "title": "Maleficent",
      "vote_average": 7.1,
      "overview": "A beautiful, pure-hearted young woman, Maleficent has an idyllic life growing up in a peaceable forest kingdom, until one day when an invading army threatens the harmony of the land.  Maleficent rises to be the land's fiercest protector, but she ultimately suffers a ruthless betrayal – an act that begins to turn her heart into stone. Bent on revenge, Maleficent faces an epic battle with the invading King's successor and, as a result, places a curse upon his newborn infant Aurora. As the child grows, Maleficent realizes that Aurora holds the key to peace in the kingdom – and to Maleficent's true happiness as well.",
      "release_date": "2014-05-28"
    },
    {
      "popularity": 34.431,
      "vote_count": 6837,
      "video": false,
      "poster_path": "/yd3wjLLeQHJ3oRDy4wwiNNFVyLW.jpg",
      "id": 854,
      "adult": false,
      "backdrop_path": "/80uHK2xWwjlOxmfJ1wQB09omAht.jpg",
      "original_language": "en",
      "original_title": "The Mask",
      "genre_ids": [
        35,
        80,
        14,
        10749
      ],
      "title": "The Mask",
      "vote_average": 6.9,
      "overview": "When timid bank clerk Stanley Ipkiss discovers a magical mask containing the spirit of the Norse god Loki, his entire life changes. While wearing the mask, Ipkiss becomes a supernatural playboy exuding charm and confidence which allows him to catch the eye of local nightclub singer Tina Carlyle. Unfortunately, under the mask's influence, Ipkiss also robs a bank, which angers junior crime lord Dorian Tyrell, whose goons get blamed for the heist.",
      "release_date": "1994-07-29"
    },
    {
      "popularity": 33.26,
      "vote_count": 4090,
      "video": false,
      "poster_path": "/AuHbFy7d25NUgU9ane25nXeKeVK.jpg",
      "id": 782,
      "adult": false,
      "backdrop_path": "/5koRBlTMvQHkJazij05TRKYfuOP.jpg",
      "original_language": "en",
      "original_title": "Gattaca",
      "genre_ids": [
        9648,
        878,
        53,
        10749
      ],
      "title": "Gattaca",
      "vote_average": 7.5,
      "overview": "In a future society in the era of indefinite eugenics, humans are set on a life course depending on their DNA. Young Vincent Freeman is born with a condition that would prevent him from space travel, yet is determined to infiltrate the GATTACA space program.",
      "release_date": "1997-09-07"
    },
    {
      "popularity": 29.596,
      "vote_count": 12674,
      "video": false,
      "poster_path": "/tWqifoYuwLETmmasnGHO7xBjEtt.jpg",
      "id": 321612,
      "adult": false,
      "backdrop_path": "/7QshG75xKCmClghQDU1ta2BTaja.jpg",
      "original_language": "en",
      "original_title": "Beauty and the Beast",
      "genre_ids": [
        14,
        10749,
        10751
      ],
      "title": "Beauty and the Beast",
      "vote_average": 6.9,
      "overview": "A live-action adaptation of Disney's version of the classic tale of a cursed prince and a beautiful young woman who helps him break the spell.",
      "release_date": "2017-03-16"
    },
    {
      "popularity": 33.093,
      "id": 216015,
      "video": false,
      "vote_count": 8428,
      "vote_average": 5.8,
      "title": "Fifty Shades of Grey",
      "release_date": "2015-02-11",
      "original_language": "en",
      "original_title": "Fifty Shades of Grey",
      "genre_ids": [
        18,
        10749,
        53
      ],
      "backdrop_path": "/7IGKrY1f1KfwMipx9wZC4NRgIdF.jpg",
      "adult": false,
      "overview": "When college senior Anastasia Steele steps in for her sick roommate to interview prominent businessman Christian Grey for their campus paper, little does she realize the path her life will take. Christian, as enigmatic as he is rich and powerful, finds himself strangely drawn to Ana, and she to him. Though sexually inexperienced, Ana plunges headlong into an affair -- and learns that Christian's true sexual proclivities push the boundaries of pain and pleasure.",
      "poster_path": "/63kGofUkt1Mx0SIL4XI4Z5AoSgt.jpg"
    }
  ]
}